Aug 19 15:45:24 Anthares lightdm: pam_unix(lightdm-greeter:session): session opened for user lightdm by (uid=0)
Aug 19 15:45:24 Anthares systemd-logind[506]: New session c1 of user lightdm.
Aug 19 15:45:24 Anthares systemd: pam_unix(systemd-user:session): session opened for user lightdm by (uid=0)
Aug 19 15:46:40 Anthares lightdm: pam_unix(lightdm:auth): authentication failure; logname= uid=0 euid=0 tty=:0 ruser= rhost=  user=root
Aug 19 15:46:47 Anthares lightdm: pam_unix(lightdm:auth): authentication failure; logname= uid=0 euid=0 tty=:0 ruser= rhost=  user=root
Aug 19 15:47:04 Anthares lightdm: pam_unix(lightdm:auth): authentication failure; logname= uid=0 euid=0 tty=:0 ruser= rhost=  user=root
Aug 19 15:47:16 Anthares lightdm: pam_unix(lightdm:auth): authentication failure; logname= uid=0 euid=0 tty=:0 ruser= rhost=  user=root
Aug 19 15:47:32 Anthares lightdm: pam_unix(lightdm:auth): authentication failure; logname= uid=0 euid=0 tty=:0 ruser= rhost=  user=root
Aug 19 15:47:42 Anthares lightdm: pam_unix(lightdm-greeter:session): session closed for user lightdm
Aug 19 15:47:42 Anthares systemd-logind[506]: Removed session c1.
Aug 19 15:47:42 Anthares lightdm: pam_unix(lightdm:session): session opened for user root by (uid=0)
Aug 19 15:47:42 Anthares systemd-logind[506]: New session 2 of user root.
Aug 19 15:47:43 Anthares systemd: pam_unix(systemd-user:session): session opened for user root by (uid=0)
Aug 19 15:47:50 Anthares polkitd(authority=local): Registered Authentication Agent for unix-session:2 (system bus name :1.58 [/usr/lib/policykit-1-gnome/polkit-gnome-authentication-agent-1], object path /org/gnome/PolicyKit1/AuthenticationAgent, locale pt_BR.UTF-8)
Aug 19 15:47:53 Anthares systemd: pam_unix(systemd-user:session): session closed for user lightdm
Aug 19 15:48:18 Anthares sudo:     root : TTY=unknown ; PWD=/root ; USER=root ; COMMAND=/usr/bin/mv /etc/fstab /etc/fstab.orig.calamares
Aug 19 15:48:18 Anthares sudo: pam_unix(sudo:session): session opened for user root by (uid=0)
Aug 19 15:48:18 Anthares sudo: pam_unix(sudo:session): session closed for user root
Aug 19 15:48:18 Anthares pkexec: pam_unix(polkit-1:session): session opened for user root by (uid=0)
Aug 19 15:48:18 Anthares pkexec[1228]: root: Executing command [USER=root] [TTY=unknown] [CWD=/root] [COMMAND=/usr/bin/calamares]
Aug 19 15:49:03 Anthares sudo:     root : TTY=unknown ; PWD=/root ; USER=root ; COMMAND=/usr/bin/mv /etc/fstab.orig.calamares /etc/fstab
Aug 19 15:49:03 Anthares sudo: pam_unix(sudo:session): session opened for user root by (uid=0)
Aug 19 15:49:03 Anthares sudo: pam_unix(sudo:session): session closed for user root
Aug 19 16:17:01 Anthares CRON[2799]: pam_unix(cron:session): session opened for user root by (uid=0)
Aug 19 16:17:01 Anthares CRON[2799]: pam_unix(cron:session): session closed for user root
Aug 19 17:15:54 Anthares pkexec: pam_unix(polkit-1:session): session opened for user root by (uid=0)
Aug 19 17:15:54 Anthares pkexec[3096]: root: Executing command [USER=root] [TTY=unknown] [CWD=/root] [COMMAND=/usr/share/cinnamon/cinnamon-settings-users/cinnamon-settings-users.py]
Aug 19 17:16:04 Anthares accounts-daemon: request by system-bus-name::1.85 [/usr/bin/python3 /usr/share/cinnamon/cinnamon-settings-users/cinnamon-settings-users.py pid:3096 uid:0]: create user 'dev'
Aug 19 17:16:05 Anthares groupadd[3104]: group added to /etc/group: name=dev, GID=1000
Aug 19 17:16:05 Anthares groupadd[3104]: group added to /etc/gshadow: name=dev
Aug 19 17:16:05 Anthares groupadd[3104]: new group: name=dev, GID=1000
Aug 19 17:16:05 Anthares useradd[3108]: new user: name=dev, UID=1000, GID=1000, home=/home/dev, shell=/bin/bash
Aug 19 17:16:28 Anthares chfn[3119]: changed user 'dev' information
Aug 19 17:16:28 Anthares accounts-daemon: request by system-bus-name::1.85 [/usr/bin/python3 /usr/share/cinnamon/cinnamon-settings-users/cinnamon-settings-users.py pid:3096 uid:0]: change password mode of user 'dev' (1000) to 2
Aug 19 17:16:28 Anthares passwd[3124]: password for 'dev' changed by 'root'
Aug 19 17:16:33 Anthares accounts-daemon: request by system-bus-name::1.85 [/usr/bin/python3 /usr/share/cinnamon/cinnamon-settings-users/cinnamon-settings-users.py pid:3096 uid:0]: change account type of user 'dev' (1000) to 1
Aug 19 17:16:33 Anthares usermod[3131]: add 'dev' to group 'sudo'
Aug 19 17:16:33 Anthares usermod[3131]: add 'dev' to group 'dev'
Aug 19 17:16:33 Anthares usermod[3131]: add 'dev' to shadow group 'sudo'
Aug 19 17:16:33 Anthares usermod[3131]: add 'dev' to shadow group 'dev'
Aug 19 17:16:46 Anthares accounts-daemon: request by system-bus-name::1.85 [/usr/bin/python3 /usr/share/cinnamon/cinnamon-settings-users/cinnamon-settings-users.py pid:3096 uid:0]: set password and hint of user 'dev' (1000)
Aug 19 17:16:46 Anthares usermod[3139]: change user 'dev' password
Aug 19 17:16:57 Anthares lightdm: pam_unix(lightdm:session): session closed for user root
Aug 19 17:16:57 Anthares systemd-logind[506]: Session 2 logged out. Waiting for processes to exit.
Aug 19 17:16:57 Anthares polkitd(authority=local): Unregistered Authentication Agent for unix-session:2 (system bus name :1.58, object path /org/gnome/PolicyKit1/AuthenticationAgent, locale pt_BR.UTF-8) (disconnected from bus)
Aug 19 17:16:59 Anthares lightdm: pam_unix(lightdm-greeter:session): session opened for user lightdm by (uid=0)
Aug 19 17:16:59 Anthares systemd-logind[506]: New session c2 of user lightdm.
Aug 19 17:16:59 Anthares systemd: pam_unix(systemd-user:session): session opened for user lightdm by (uid=0)
Aug 19 17:17:01 Anthares CRON[3212]: pam_unix(cron:session): session opened for user root by (uid=0)
Aug 19 17:17:01 Anthares CRON[3212]: pam_unix(cron:session): session closed for user root
Aug 19 17:17:08 Anthares lightdm: pam_unix(lightdm-greeter:session): session closed for user lightdm
Aug 19 17:17:08 Anthares systemd-logind[506]: Removed session c2.
Aug 19 17:17:08 Anthares lightdm: pam_unix(lightdm:session): session opened for user dev by (uid=0)
Aug 19 17:17:08 Anthares systemd-logind[506]: New session 11 of user dev.
Aug 19 17:17:08 Anthares systemd: pam_unix(systemd-user:session): session opened for user dev by (uid=0)
Aug 19 17:17:11 Anthares polkitd(authority=local): Registered Authentication Agent for unix-session:11 (system bus name :1.155 [/usr/lib/policykit-1-gnome/polkit-gnome-authentication-agent-1], object path /org/gnome/PolicyKit1/AuthenticationAgent, locale pt_BR.UTF-8)
Aug 19 17:17:18 Anthares systemd: pam_unix(systemd-user:session): session closed for user lightdm
Aug 19 17:18:14 Anthares su: (to root) dev on pts/0
Aug 19 17:18:14 Anthares su: pam_unix(su:session): session opened for user root by (uid=1000)
Aug 19 17:18:43 Anthares su: pam_unix(su:session): session closed for user root
Aug 19 17:20:22 Anthares su: pam_unix(su:auth): authentication failure; logname= uid=1000 euid=0 tty=pts/0 ruser=dev rhost=  user=root
Aug 19 17:20:24 Anthares su: FAILED SU (to root) dev on pts/0
Aug 19 17:20:32 Anthares su: (to root) dev on pts/0
Aug 19 17:20:32 Anthares su: pam_unix(su:session): session opened for user root by (uid=1000)
Aug 19 17:28:17 Anthares su: pam_unix(su:session): session closed for user root
Aug 19 17:28:30 Anthares lightdm: pam_unix(lightdm:session): session closed for user dev
Aug 19 17:28:30 Anthares systemd-logind[506]: Session 11 logged out. Waiting for processes to exit.
Aug 19 17:28:30 Anthares polkitd(authority=local): Unregistered Authentication Agent for unix-session:11 (system bus name :1.155, object path /org/gnome/PolicyKit1/AuthenticationAgent, locale pt_BR.UTF-8) (disconnected from bus)
Aug 19 17:28:32 Anthares lightdm: pam_unix(lightdm-greeter:session): session opened for user lightdm by (uid=0)
Aug 19 17:28:32 Anthares systemd-logind[506]: New session c3 of user lightdm.
Aug 19 17:28:32 Anthares systemd: pam_unix(systemd-user:session): session opened for user lightdm by (uid=0)
Aug 19 17:28:43 Anthares lightdm: pam_unix(lightdm-greeter:session): session closed for user lightdm
Aug 19 17:28:43 Anthares systemd-logind[506]: Removed session c3.
Aug 19 17:28:43 Anthares lightdm: pam_unix(lightdm:session): session opened for user root by (uid=0)
Aug 19 17:28:43 Anthares systemd-logind[506]: New session 14 of user root.
Aug 19 17:28:45 Anthares polkitd(authority=local): Registered Authentication Agent for unix-session:14 (system bus name :1.344 [/usr/lib/policykit-1-gnome/polkit-gnome-authentication-agent-1], object path /org/gnome/PolicyKit1/AuthenticationAgent, locale pt_BR.UTF-8)
Aug 19 17:28:53 Anthares systemd: pam_unix(systemd-user:session): session closed for user lightdm
Aug 19 17:28:59 Anthares pkexec: pam_unix(polkit-1:session): session opened for user root by (uid=0)
Aug 19 17:28:59 Anthares pkexec[4125]: root: Executing command [USER=root] [TTY=unknown] [CWD=/root] [COMMAND=/usr/share/cinnamon/cinnamon-settings-users/cinnamon-settings-users.py]
Aug 19 17:29:04 Anthares accounts-daemon: request by system-bus-name::1.351 [/usr/bin/python3 /usr/share/cinnamon/cinnamon-settings-users/cinnamon-settings-users.py pid:4125 uid:0]: delete user 'dev' (1000)
Aug 19 17:29:05 Anthares userdel[4131]: delete user 'dev'
Aug 19 17:29:05 Anthares userdel[4131]: delete 'dev' from group 'sudo'
Aug 19 17:29:05 Anthares userdel[4131]: delete 'dev' from group 'dev'
Aug 19 17:29:05 Anthares userdel[4131]: removed group 'dev' owned by 'dev'
Aug 19 17:29:05 Anthares userdel[4131]: removed shadow group 'dev' owned by 'dev'
Aug 19 17:29:05 Anthares userdel[4131]: delete 'dev' from shadow group 'sudo'
Aug 19 17:29:20 Anthares accounts-daemon: request by system-bus-name::1.351 [/usr/bin/python3 /usr/share/cinnamon/cinnamon-settings-users/cinnamon-settings-users.py pid:4125 uid:0]: create user 'dev'
Aug 19 17:29:20 Anthares groupadd[4141]: group added to /etc/group: name=dev, GID=1000
Aug 19 17:29:21 Anthares groupadd[4141]: group added to /etc/gshadow: name=dev
Aug 19 17:29:21 Anthares groupadd[4141]: new group: name=dev, GID=1000
Aug 19 17:29:21 Anthares useradd[4145]: new user: name=dev, UID=1000, GID=1000, home=/home/dev, shell=/bin/bash
Aug 19 17:29:24 Anthares chfn[4153]: changed user 'dev' information
Aug 19 17:29:25 Anthares gpasswd[4158]: user dev added by root to group sudo
Aug 19 17:29:25 Anthares accounts-daemon: request by system-bus-name::1.351 [/usr/bin/python3 /usr/share/cinnamon/cinnamon-settings-users/cinnamon-settings-users.py pid:4125 uid:0]: change password mode of user 'dev' (1000) to 2
Aug 19 17:29:25 Anthares passwd[4162]: password for 'dev' changed by 'root'
Aug 19 17:29:46 Anthares accounts-daemon: request by system-bus-name::1.351 [/usr/bin/python3 /usr/share/cinnamon/cinnamon-settings-users/cinnamon-settings-users.py pid:4125 uid:0]: set password and hint of user 'dev' (1000)
Aug 19 17:29:46 Anthares usermod[4171]: change user 'dev' password
Aug 19 17:29:56 Anthares lightdm: pam_unix(lightdm:session): session closed for user root
Aug 19 17:29:56 Anthares systemd-logind[506]: Session 14 logged out. Waiting for processes to exit.
Aug 19 17:29:56 Anthares polkitd(authority=local): Unregistered Authentication Agent for unix-session:14 (system bus name :1.344, object path /org/gnome/PolicyKit1/AuthenticationAgent, locale pt_BR.UTF-8) (disconnected from bus)
Aug 19 17:29:57 Anthares lightdm: pam_unix(lightdm-greeter:session): session opened for user lightdm by (uid=0)
Aug 19 17:29:57 Anthares systemd-logind[506]: New session c4 of user lightdm.
Aug 19 17:29:57 Anthares systemd: pam_unix(systemd-user:session): session opened for user lightdm by (uid=0)
Aug 19 17:30:01 Anthares CRON[4245]: pam_unix(cron:session): session opened for user root by (uid=0)
Aug 19 17:30:01 Anthares CRON[4245]: pam_unix(cron:session): session closed for user root
Aug 19 17:30:05 Anthares lightdm: pam_unix(lightdm-greeter:session): session closed for user lightdm
Aug 19 17:30:05 Anthares systemd-logind[506]: Removed session c4.
Aug 19 17:30:05 Anthares lightdm: pam_unix(lightdm:session): session opened for user dev by (uid=0)
Aug 19 17:30:05 Anthares systemd-logind[506]: New session 22 of user dev.
Aug 19 17:30:07 Anthares polkitd(authority=local): Registered Authentication Agent for unix-session:22 (system bus name :1.416 [/usr/lib/policykit-1-gnome/polkit-gnome-authentication-agent-1], object path /org/gnome/PolicyKit1/AuthenticationAgent, locale pt_BR.UTF-8)
Aug 19 17:30:15 Anthares systemd: pam_unix(systemd-user:session): session closed for user lightdm
Aug 19 17:30:27 Anthares lightdm: pam_unix(lightdm:session): session closed for user dev
Aug 19 17:30:27 Anthares systemd-logind[506]: Session 22 logged out. Waiting for processes to exit.
Aug 19 17:30:27 Anthares polkitd(authority=local): Unregistered Authentication Agent for unix-session:22 (system bus name :1.416, object path /org/gnome/PolicyKit1/AuthenticationAgent, locale pt_BR.UTF-8) (disconnected from bus)
Aug 19 17:30:28 Anthares lightdm: pam_unix(lightdm-greeter:session): session opened for user lightdm by (uid=0)
Aug 19 17:30:28 Anthares systemd-logind[506]: New session c5 of user lightdm.
Aug 19 17:30:28 Anthares systemd: pam_unix(systemd-user:session): session opened for user lightdm by (uid=0)
Aug 19 17:30:40 Anthares lightdm: pam_unix(lightdm-greeter:session): session closed for user lightdm
Aug 19 17:30:40 Anthares systemd-logind[506]: Removed session c5.
Aug 19 17:30:40 Anthares lightdm: pam_unix(lightdm:session): session opened for user root by (uid=0)
Aug 19 17:30:40 Anthares systemd-logind[506]: New session 24 of user root.
Aug 19 17:30:42 Anthares polkitd(authority=local): Registered Authentication Agent for unix-session:24 (system bus name :1.556 [/usr/lib/policykit-1-gnome/polkit-gnome-authentication-agent-1], object path /org/gnome/PolicyKit1/AuthenticationAgent, locale pt_BR.UTF-8)
Aug 19 17:30:50 Anthares systemd: pam_unix(systemd-user:session): session closed for user lightdm
Aug 19 17:30:51 Anthares pkexec: pam_unix(polkit-1:session): session opened for user root by (uid=0)
Aug 19 17:30:51 Anthares pkexec[4795]: root: Executing command [USER=root] [TTY=unknown] [CWD=/root] [COMMAND=/usr/share/cinnamon/cinnamon-settings-users/cinnamon-settings-users.py]
Aug 19 17:30:57 Anthares accounts-daemon: request by system-bus-name::1.563 [/usr/bin/python3 /usr/share/cinnamon/cinnamon-settings-users/cinnamon-settings-users.py pid:4795 uid:0]: delete user 'dev' (1000)
Aug 19 17:30:57 Anthares userdel[4801]: delete user 'dev'
Aug 19 17:30:57 Anthares userdel[4801]: delete 'dev' from group 'sudo'
Aug 19 17:30:57 Anthares userdel[4801]: removed group 'dev' owned by 'dev'
Aug 19 17:30:57 Anthares userdel[4801]: removed shadow group 'dev' owned by 'dev'
Aug 19 17:30:57 Anthares userdel[4801]: delete 'dev' from shadow group 'sudo'
Aug 19 17:31:50 Anthares sudo:     root : TTY=unknown ; PWD=/root ; USER=root ; COMMAND=/usr/bin/mv /etc/fstab /etc/fstab.orig.calamares
Aug 19 17:31:50 Anthares sudo: pam_unix(sudo:session): session opened for user root by (uid=0)
Aug 19 17:31:50 Anthares sudo: pam_unix(sudo:session): session closed for user root
Aug 19 17:31:50 Anthares pkexec: pam_unix(polkit-1:session): session opened for user root by (uid=0)
Aug 19 17:31:50 Anthares pkexec[4824]: root: Executing command [USER=root] [TTY=unknown] [CWD=/root] [COMMAND=/usr/bin/calamares]
Aug 19 17:32:24 Anthares sudo:     root : TTY=unknown ; PWD=/root ; USER=root ; COMMAND=/usr/bin/mv /etc/fstab.orig.calamares /etc/fstab
Aug 19 17:32:24 Anthares sudo: pam_unix(sudo:session): session opened for user root by (uid=0)
Aug 19 17:32:25 Anthares sudo: pam_unix(sudo:session): session closed for user root
Aug 19 17:35:10 Anthares pkexec: pam_unix(polkit-1:session): session opened for user root by (uid=0)
Aug 19 17:35:10 Anthares pkexec[12413]: root: Executing command [USER=root] [TTY=unknown] [CWD=/root] [COMMAND=/usr/lib/x86_64-linux-gnu/cinnamon-settings-daemon/csd-backlight-helper --set-brightness 281 -b firmware -b platform -b raw]
Aug 19 17:48:00 Anthares pkexec: pam_unix(polkit-1:session): session opened for user root by (uid=0)
Aug 19 17:48:00 Anthares pkexec[12469]: root: Executing command [USER=root] [TTY=unknown] [CWD=/root] [COMMAND=/usr/lib/x86_64-linux-gnu/cinnamon-settings-daemon/csd-backlight-helper --set-brightness 937 -b firmware -b platform -b raw]
Aug 19 17:49:44 Anthares pkexec: pam_unix(polkit-1:session): session opened for user root by (uid=0)
Aug 19 17:49:45 Anthares pkexec[12499]: root: Executing command [USER=root] [TTY=unknown] [CWD=/root] [COMMAND=/usr/lib/x86_64-linux-gnu/cinnamon-settings-daemon/csd-backlight-helper --set-brightness 281 -b firmware -b platform -b raw]
Aug 19 17:49:52 Anthares pkexec: pam_unix(polkit-1:session): session opened for user root by (uid=0)
Aug 19 17:49:52 Anthares pkexec[12506]: root: Executing command [USER=root] [TTY=unknown] [CWD=/root] [COMMAND=/usr/lib/x86_64-linux-gnu/cinnamon-settings-daemon/csd-backlight-helper --set-brightness 937 -b firmware -b platform -b raw]
Aug 19 17:53:08 Anthares pkexec: pam_unix(polkit-1:session): session opened for user root by (uid=0)
Aug 19 17:53:08 Anthares pkexec[18701]: root: Executing command [USER=root] [TTY=unknown] [CWD=/root] [COMMAND=/usr/lib/x86_64-linux-gnu/cinnamon-settings-daemon/csd-backlight-helper --set-brightness 281 -b firmware -b platform -b raw]
Aug 19 18:00:33 Anthares pkexec: pam_unix(polkit-1:session): session opened for user root by (uid=0)
Aug 19 18:00:33 Anthares pkexec[18747]: root: Executing command [USER=root] [TTY=unknown] [CWD=/root] [COMMAND=/usr/lib/x86_64-linux-gnu/cinnamon-settings-daemon/csd-backlight-helper --set-brightness 937 -b firmware -b platform -b raw]
Aug 19 18:02:06 Anthares pkexec: pam_unix(polkit-1:session): session opened for user root by (uid=0)
Aug 19 18:02:06 Anthares pkexec[18761]: root: Executing command [USER=root] [TTY=unknown] [CWD=/root] [COMMAND=/usr/lib/x86_64-linux-gnu/cinnamon-settings-daemon/csd-backlight-helper --set-brightness 281 -b firmware -b platform -b raw]
Aug 19 18:05:32 Anthares pkexec: pam_unix(polkit-1:session): session opened for user root by (uid=0)
Aug 19 18:05:32 Anthares pkexec[18780]: root: Executing command [USER=root] [TTY=unknown] [CWD=/root] [COMMAND=/usr/lib/x86_64-linux-gnu/cinnamon-settings-daemon/csd-backlight-helper --set-brightness 937 -b firmware -b platform -b raw]
Aug 19 18:07:06 Anthares pkexec: pam_unix(polkit-1:session): session opened for user root by (uid=0)
Aug 19 18:07:06 Anthares pkexec[18800]: root: Executing command [USER=root] [TTY=unknown] [CWD=/root] [COMMAND=/usr/lib/x86_64-linux-gnu/cinnamon-settings-daemon/csd-backlight-helper --set-brightness 281 -b firmware -b platform -b raw]
Aug 19 18:08:27 Anthares pkexec: pam_unix(polkit-1:session): session opened for user root by (uid=0)
Aug 19 18:08:28 Anthares pkexec[18807]: root: Executing command [USER=root] [TTY=unknown] [CWD=/root] [COMMAND=/usr/lib/x86_64-linux-gnu/cinnamon-settings-daemon/csd-backlight-helper --set-brightness 937 -b firmware -b platform -b raw]
Aug 19 18:15:08 Anthares pkexec: pam_unix(polkit-1:session): session opened for user root by (uid=0)
Aug 19 18:15:08 Anthares pkexec[25014]: root: Executing command [USER=root] [TTY=unknown] [CWD=/root] [COMMAND=/usr/lib/x86_64-linux-gnu/cinnamon-settings-daemon/csd-backlight-helper --set-brightness 281 -b firmware -b platform -b raw]
Aug 19 18:17:02 Anthares CRON[25024]: pam_unix(cron:session): session opened for user root by (uid=0)
Aug 19 18:17:02 Anthares CRON[25024]: pam_unix(cron:session): session closed for user root
Aug 19 18:24:33 Anthares pkexec: pam_unix(polkit-1:session): session opened for user root by (uid=0)
Aug 19 18:24:33 Anthares pkexec[25063]: root: Executing command [USER=root] [TTY=unknown] [CWD=/root] [COMMAND=/usr/lib/x86_64-linux-gnu/cinnamon-settings-daemon/csd-backlight-helper --set-brightness 937 -b firmware -b platform -b raw]
Aug 19 18:30:01 Anthares CRON[25218]: pam_unix(cron:session): session opened for user root by (uid=0)
Aug 19 18:30:01 Anthares CRON[25218]: pam_unix(cron:session): session closed for user root
Aug 19 19:01:47 Anthares systemd-logind[506]: System is rebooting.
Aug 19 18:35:11 Anthares systemd-logind[528]: New seat seat0.
Aug 19 18:35:11 Anthares systemd-logind[528]: Watching system buttons on /dev/input/event3 (Power Button)
Aug 19 18:35:11 Anthares systemd-logind[528]: Watching system buttons on /dev/input/event1 (Lid Switch)
Aug 19 18:35:11 Anthares systemd-logind[528]: Watching system buttons on /dev/input/event2 (Sleep Button)
Aug 19 18:35:11 Anthares systemd-logind[528]: Watching system buttons on /dev/input/event0 (AT Translated Set 2 keyboard)
Aug 19 18:35:19 Anthares lightdm: pam_unix(lightdm-greeter:session): session opened for user lightdm by (uid=0)
Aug 19 18:35:19 Anthares systemd-logind[528]: New session c1 of user lightdm.
Aug 19 18:35:20 Anthares systemd: pam_unix(systemd-user:session): session opened for user lightdm by (uid=0)
Aug 19 18:35:31 Anthares lightdm: pam_unix(lightdm-greeter:session): session closed for user lightdm
Aug 19 18:35:31 Anthares systemd-logind[528]: Removed session c1.
Aug 19 18:35:31 Anthares lightdm: pam_unix(lightdm:session): session opened for user root by (uid=0)
Aug 19 18:35:32 Anthares systemd-logind[528]: New session 2 of user root.
Aug 19 18:35:32 Anthares systemd: pam_unix(systemd-user:session): session opened for user root by (uid=0)
Aug 19 18:35:41 Anthares polkitd(authority=local): Registered Authentication Agent for unix-session:2 (system bus name :1.60 [/usr/lib/policykit-1-gnome/polkit-gnome-authentication-agent-1], object path /org/gnome/PolicyKit1/AuthenticationAgent, locale pt_BR.UTF-8)
Aug 19 18:35:42 Anthares systemd: pam_unix(systemd-user:session): session closed for user lightdm
Aug 19 19:00:36 Anthares systemd-logind[528]: System is rebooting.
Aug 20 01:39:18 Anthares systemd-logind[510]: New seat seat0.
Aug 20 01:39:18 Anthares systemd-logind[510]: Watching system buttons on /dev/input/event3 (Power Button)
Aug 20 01:39:18 Anthares systemd-logind[510]: Watching system buttons on /dev/input/event1 (Lid Switch)
Aug 20 01:39:18 Anthares systemd-logind[510]: Watching system buttons on /dev/input/event2 (Sleep Button)
Aug 20 01:39:18 Anthares systemd-logind[510]: Watching system buttons on /dev/input/event0 (AT Translated Set 2 keyboard)
Aug 20 01:39:33 Anthares lightdm: pam_unix(lightdm-greeter:session): session opened for user lightdm by (uid=0)
Aug 20 01:39:33 Anthares systemd-logind[510]: New session c1 of user lightdm.
Aug 20 01:39:33 Anthares systemd: pam_unix(systemd-user:session): session opened for user lightdm by (uid=0)
Aug 20 01:40:12 Anthares lightdm: pam_unix(lightdm-greeter:session): session closed for user lightdm
Aug 20 01:40:12 Anthares systemd-logind[510]: Removed session c1.
Aug 20 01:40:12 Anthares lightdm: pam_unix(lightdm:session): session opened for user root by (uid=0)
Aug 20 01:40:12 Anthares systemd-logind[510]: New session 2 of user root.
Aug 20 01:40:12 Anthares systemd: pam_unix(systemd-user:session): session opened for user root by (uid=0)
Aug 20 01:40:21 Anthares polkitd(authority=local): Registered Authentication Agent for unix-session:2 (system bus name :1.65 [/usr/lib/policykit-1-gnome/polkit-gnome-authentication-agent-1], object path /org/gnome/PolicyKit1/AuthenticationAgent, locale pt_BR.UTF-8)
Aug 20 01:40:22 Anthares systemd: pam_unix(systemd-user:session): session closed for user lightdm
Aug 20 02:01:08 Anthares systemd-logind[510]: System is rebooting.
Aug 21 12:31:13 Anthares systemd-logind[508]: New seat seat0.
Aug 21 12:31:13 Anthares systemd-logind[508]: Watching system buttons on /dev/input/event3 (Power Button)
Aug 21 12:31:13 Anthares systemd-logind[508]: Watching system buttons on /dev/input/event1 (Lid Switch)
Aug 21 12:31:13 Anthares systemd-logind[508]: Watching system buttons on /dev/input/event2 (Sleep Button)
Aug 21 12:31:13 Anthares systemd-logind[508]: Watching system buttons on /dev/input/event0 (AT Translated Set 2 keyboard)
Aug 21 12:31:27 Anthares lightdm: pam_unix(lightdm-greeter:session): session opened for user lightdm by (uid=0)
Aug 21 12:31:27 Anthares systemd-logind[508]: New session c1 of user lightdm.
Aug 21 12:31:27 Anthares systemd: pam_unix(systemd-user:session): session opened for user lightdm by (uid=0)
Aug 21 12:32:36 Anthares lightdm: pam_unix(lightdm-greeter:session): session closed for user lightdm
Aug 21 12:32:36 Anthares systemd-logind[508]: Removed session c1.
Aug 21 12:32:36 Anthares lightdm: pam_unix(lightdm:session): session opened for user root by (uid=0)
Aug 21 12:32:36 Anthares systemd-logind[508]: New session 2 of user root.
Aug 21 12:32:36 Anthares systemd: pam_unix(systemd-user:session): session opened for user root by (uid=0)
Aug 21 12:32:44 Anthares polkitd(authority=local): Registered Authentication Agent for unix-session:2 (system bus name :1.66 [/usr/lib/policykit-1-gnome/polkit-gnome-authentication-agent-1], object path /org/gnome/PolicyKit1/AuthenticationAgent, locale pt_BR.UTF-8)
Aug 21 12:32:46 Anthares systemd: pam_unix(systemd-user:session): session closed for user lightdm
Aug 21 13:17:02 Anthares CRON[7700]: pam_unix(cron:session): session opened for user root by (uid=0)
Aug 21 13:17:02 Anthares CRON[7700]: pam_unix(cron:session): session closed for user root
Aug 21 13:30:01 Anthares CRON[7736]: pam_unix(cron:session): session opened for user root by (uid=0)
Aug 21 13:30:01 Anthares CRON[7736]: pam_unix(cron:session): session closed for user root
Aug 21 13:32:11 Anthares systemd-logind[508]: System is rebooting.
Aug 22 11:39:10 Anthares systemd-logind[531]: New seat seat0.
Aug 22 11:39:10 Anthares systemd-logind[531]: Watching system buttons on /dev/input/event3 (Power Button)
Aug 22 11:39:10 Anthares systemd-logind[531]: Watching system buttons on /dev/input/event1 (Lid Switch)
Aug 22 11:39:10 Anthares systemd-logind[531]: Watching system buttons on /dev/input/event2 (Sleep Button)
Aug 22 11:39:10 Anthares systemd-logind[531]: Watching system buttons on /dev/input/event0 (AT Translated Set 2 keyboard)
Aug 22 11:39:24 Anthares lightdm: pam_unix(lightdm-greeter:session): session opened for user lightdm by (uid=0)
Aug 22 11:39:24 Anthares systemd-logind[531]: New session c1 of user lightdm.
Aug 22 11:39:24 Anthares systemd: pam_unix(systemd-user:session): session opened for user lightdm by (uid=0)
Aug 22 11:39:46 Anthares lightdm: pam_unix(lightdm-greeter:session): session closed for user lightdm
Aug 22 11:39:46 Anthares systemd-logind[531]: Removed session c1.
Aug 22 11:39:46 Anthares lightdm: pam_unix(lightdm:session): session opened for user root by (uid=0)
Aug 22 11:39:46 Anthares systemd-logind[531]: New session 2 of user root.
Aug 22 11:39:47 Anthares systemd: pam_unix(systemd-user:session): session opened for user root by (uid=0)
Aug 22 11:39:54 Anthares polkitd(authority=local): Registered Authentication Agent for unix-session:2 (system bus name :1.67 [/usr/lib/policykit-1-gnome/polkit-gnome-authentication-agent-1], object path /org/gnome/PolicyKit1/AuthenticationAgent, locale pt_BR.UTF-8)
Aug 22 11:39:57 Anthares systemd: pam_unix(systemd-user:session): session closed for user lightdm
Aug 22 12:04:28 Anthares systemd-logind[531]: System is rebooting.
Aug 22 15:01:25 Anthares systemd-logind[507]: New seat seat0.
Aug 22 15:01:25 Anthares systemd-logind[507]: Watching system buttons on /dev/input/event3 (Power Button)
Aug 22 15:01:25 Anthares systemd-logind[507]: Watching system buttons on /dev/input/event1 (Lid Switch)
Aug 22 15:01:25 Anthares systemd-logind[507]: Watching system buttons on /dev/input/event2 (Sleep Button)
Aug 22 15:01:25 Anthares systemd-logind[507]: Watching system buttons on /dev/input/event0 (AT Translated Set 2 keyboard)
Aug 22 15:01:34 Anthares lightdm: pam_unix(lightdm-greeter:session): session opened for user lightdm by (uid=0)
Aug 22 15:01:34 Anthares systemd-logind[507]: New session c1 of user lightdm.
Aug 22 15:01:34 Anthares systemd: pam_unix(systemd-user:session): session opened for user lightdm by (uid=0)
Aug 22 15:02:08 Anthares lightdm: pam_unix(lightdm-greeter:session): session closed for user lightdm
Aug 22 15:02:08 Anthares systemd-logind[507]: Removed session c1.
Aug 22 15:02:08 Anthares lightdm: pam_unix(lightdm:session): session opened for user root by (uid=0)
Aug 22 15:02:08 Anthares systemd-logind[507]: New session 2 of user root.
Aug 22 15:02:08 Anthares systemd: pam_unix(systemd-user:session): session opened for user root by (uid=0)
Aug 22 15:02:16 Anthares polkitd(authority=local): Registered Authentication Agent for unix-session:2 (system bus name :1.60 [/usr/lib/policykit-1-gnome/polkit-gnome-authentication-agent-1], object path /org/gnome/PolicyKit1/AuthenticationAgent, locale pt_BR.UTF-8)
Aug 22 15:02:18 Anthares systemd: pam_unix(systemd-user:session): session closed for user lightdm
Aug 22 15:17:02 Anthares CRON[7310]: pam_unix(cron:session): session opened for user root by (uid=0)
Aug 22 15:17:02 Anthares CRON[7310]: pam_unix(cron:session): session closed for user root
Aug 22 15:30:01 Anthares CRON[7544]: pam_unix(cron:session): session opened for user root by (uid=0)
Aug 22 15:30:01 Anthares CRON[7544]: pam_unix(cron:session): session closed for user root
Aug 22 15:57:46 Anthares systemd-logind[507]: System is rebooting.
Aug 22 15:58:29 Anthares systemd-logind[496]: New seat seat0.
Aug 22 15:58:29 Anthares systemd-logind[496]: Watching system buttons on /dev/input/event3 (Power Button)
Aug 22 15:58:29 Anthares systemd-logind[496]: Watching system buttons on /dev/input/event1 (Lid Switch)
Aug 22 15:58:29 Anthares systemd-logind[496]: Watching system buttons on /dev/input/event2 (Sleep Button)
Aug 22 15:58:29 Anthares systemd-logind[496]: Watching system buttons on /dev/input/event0 (AT Translated Set 2 keyboard)
Aug 22 15:58:38 Anthares lightdm: pam_unix(lightdm-greeter:session): session opened for user lightdm by (uid=0)
Aug 22 15:58:38 Anthares systemd-logind[496]: New session c1 of user lightdm.
Aug 22 15:58:38 Anthares systemd: pam_unix(systemd-user:session): session opened for user lightdm by (uid=0)
Aug 22 15:58:49 Anthares lightdm: pam_unix(lightdm-greeter:session): session closed for user lightdm
Aug 22 15:58:49 Anthares systemd-logind[496]: Removed session c1.
Aug 22 15:58:49 Anthares lightdm: pam_unix(lightdm:session): session opened for user root by (uid=0)
Aug 22 15:58:49 Anthares systemd-logind[496]: New session 2 of user root.
Aug 22 15:58:49 Anthares systemd: pam_unix(systemd-user:session): session opened for user root by (uid=0)
Aug 22 15:58:57 Anthares polkitd(authority=local): Registered Authentication Agent for unix-session:2 (system bus name :1.60 [/usr/lib/policykit-1-gnome/polkit-gnome-authentication-agent-1], object path /org/gnome/PolicyKit1/AuthenticationAgent, locale pt_BR.UTF-8)
Aug 22 15:58:59 Anthares systemd: pam_unix(systemd-user:session): session closed for user lightdm
Aug 22 16:17:02 Anthares CRON[7461]: pam_unix(cron:session): session opened for user root by (uid=0)
Aug 22 16:17:02 Anthares CRON[7461]: pam_unix(cron:session): session closed for user root
Aug 22 16:28:10 Anthares systemd-logind[496]: System is rebooting.
Aug 28 15:26:54 Anthares systemd-logind[493]: New seat seat0.
Aug 28 15:26:54 Anthares systemd-logind[493]: Watching system buttons on /dev/input/event3 (Power Button)
Aug 28 15:26:54 Anthares systemd-logind[493]: Watching system buttons on /dev/input/event1 (Lid Switch)
Aug 28 15:26:54 Anthares systemd-logind[493]: Watching system buttons on /dev/input/event2 (Sleep Button)
Aug 28 15:26:54 Anthares systemd-logind[493]: Watching system buttons on /dev/input/event0 (AT Translated Set 2 keyboard)
